Data 621 - HW3
…
There appears to be a single outlier in our initial model, observation #338.

##     zn indus chas   nox    rm  age   dis rad tax ptratio lstat medv target
## 338 20  6.96    0 0.464 5.856 42.1 4.429   3 223    18.6    13 21.1      1

Looking back to our look at the rad variable, this appears to be the single high crime area with a rad value of 3.

3.1 Zero Inflation

From a glance at the histogram for predictor zn, it seems like the number 0 occurs more frequently than any other values.

## # A tibble: 26 x 2
##       zn     n
##    <dbl> <int>
##  1   0     339
##  2  12.5    10
##  3  17.5     1
##  4  18       1
##  5  20      21
##  6  21       4
##  7  22       9
##  8  25       8
##  9  28       3
## 10  30       6
## #  with 16 more rows
…
